tb.vcd
$date
	Mon Jul 19 02:12:30 2021
$end
$version
	Icarus Verilog
$end
$timescale
	1ns
$end
$scope module flopenr2 $end
$var wire 1 ! clk $end
$var wire 32 " d [31:0] $end
$var wire 1 # en $end
$var wire 1 $ reset $end
$var reg 32 % q [31:0] $end
$upscope $end
$scope module flopr2 $end
$var wire 1 & clk $end
$var wire 32 ' d [31:0] $end
$var wire 1 ( reset $end
$var reg 32 ) q [31:0] $end
$upscope $end
$scope module mux2_1 $end
$var wire 32 * d0 [31:0] $end
$var wire 32 + d1 [31:0] $end
$var wire 1 , s $end
$var wire 32 - y [31:0] $end
$upscope $end
$scope module mux3_1 $end
$var wire 32 . d0 [31:0] $end
$var wire 32 / d1 [31:0] $end
$var wire 32 0 d2 [31:0] $end
$var wire 2 1 s [1:0] $end
$var wire 32 2 y [31:0] $end
$upscope $end
$scope module testbench $end
$var wire 32 3 WriteData [31:0] $end
$var wire 1 4 MemWrite $end
$var wire 32 5 DataAdr [31:0] $end
$var reg 1 6 clk $end
$var reg 1 7 reset $end
$scope module dut $end
$var wire 1 6 clk $end
$var wire 1 7 reset $end
$var wire 32 8 WriteData [31:0] $end
$var wire 32 9 ReadData [31:0] $end
$var wire 1 4 MemWrite $end
$var wire 32 : Adr [31:0] $end
$scope module arm $end
$var wire 1 6 clk $end
$var wire 1 7 reset $end
$var wire 32 ; WriteData [31:0] $end
$var wire 2 < ResultSrc [1:0] $end
$var wire 1 = RegWrite $end
$var wire 2 > RegSrc [1:0] $end
$var wire 32 ? ReadData [31:0] $end
$var wire 1 @ PCWrite $end
$var wire 1 4 MemWrite $end
$var wire 32 A Instr [31:0] $end
$var wire 2 B ImmSrc [1:0] $end
$var wire 1 C IRWrite $end
$var wire 1 D AdrSrc $end
$var wire 32 E Adr [31:0] $end
$var wire 2 F ALUSrcB [1:0] $end
$var wire 2 G ALUSrcA [1:0] $end
$var wire 4 H ALUFlags [3:0] $end
$var wire 2 I ALUControl [1:0] $end
$scope module c $end
$var wire 20 J Instr [31:12] $end
$var wire 1 6 clk $end
$var wire 1 7 reset $end
$var wire 2 K ResultSrc [1:0] $end
$var wire 1 = RegWrite $end
$var wire 1 L RegW $end
$var wire 2 M RegSrc [1:0] $end
$var wire 1 @ PCWrite $end
$var wire 1 N PCS $end
$var wire 1 O NextPC $end
$var wire 1 4 MemWrite $end
$var wire 1 P MemW $end
$var wire 2 Q ImmSrc [1:0] $end
$var wire 1 C IRWrite $end
$var wire 2 R FlagW [1:0] $end
$var wire 1 D AdrSrc $end
$var wire 2 S ALUSrcB [1:0] $end
$var wire 2 T ALUSrcA [1:0] $end
$var wire 4 U ALUFlags [3:0] $end
$var wire 2 V ALUControl [1:0] $end
$scope module cl $end
$var wire 4 W Cond [3:0] $end
$var wire 2 X FlagWrite [1:0] $end
$var wire 1 4 MemWrite $end
$var wire 1 @ PCWrite $end
$var wire 1 = RegWrite $end
$var wire 1 6 clk $end
$var wire 1 7 reset $end
$var wire 1 L RegW $end
$var wire 1 N PCS $end
$var wire 1 O NextPC $end
$var wire 1 P MemW $end
$var wire 4 Y Flags [3:0] $end
$var wire 2 Z FlagW [1:0] $end
$var wire 1 [ CondExDelayed $end
$var wire 1 \ CondEx $end
$var wire 4 ] ALUFlags [3:0] $end
$scope module cc $end
$var wire 4 ^ Cond [3:0] $end
$var wire 4 _ Flags [3:0] $end
$var wire 1 ` ge $end
$var wire 1 a zero $end
$var wire 1 b overflow $end
$var wire 1 c neg $end
$var wire 1 d carry $end
$var reg 1 \ CondEx $end
$upscope $end
$scope module condexes $end
$var wire 1 6 clk $end
$var wire 1 \ d $end
$var wire 1 7 reset $end
$var reg 1 [ q $end
$upscope $end
$scope module flagreg0 $end
$var wire 1 6 clk $end
$var wire 2 e d [1:0] $end
$var wire 1 f en $end
$var wire 1 7 reset $end
$var reg 2 g q [1:0] $end
$upscope $end
$scope module flagreg1 $end
$var wire 1 6 clk $end
$var wire 2 h d [1:0] $end
$var wire 1 i en $end
$var wire 1 7 reset $end
$var reg 2 j q [1:0] $end
$upscope $end
$scope module flagwritereg $end
$var wire 1 6 clk $end
$var wire 2 k d [1:0] $end
$var wire 1 7 reset $end
$var reg 2 l q [1:0] $end
$upscope $end
$upscope $end
$scope module dec $end
$var wire 6 m Funct [5:0] $end
$var wire 2 n ImmSrc [1:0] $end
$var wire 2 o Op [1:0] $end
$var wire 1 N PCS $end
$var wire 4 p Rd [3:0] $end
$var wire 1 6 clk $end
$var wire 1 7 reset $end
$var wire 2 q ResultSrc [1:0] $end
$var wire 1 L RegW $end
$var wire 2 r RegSrc [1:0] $end
$var wire 1 O NextPC $end
$var wire 1 P MemW $end
$var wire 1 C IRWrite $end
$var wire 1 s Branch $end
$var wire 1 D AdrSrc $end
$var wire 2 t ALUSrcB [1:0] $end
$var wire 2 u ALUSrcA [1:0] $end
$var wire 1 v ALUOp $end
$var reg 2 w ALUControl [1:0] $end
$var reg 2 x FlagW [1:0] $end
$scope module fsm $end
$var wire 6 y Funct [5:0] $end
$var wire 2 z Op [1:0] $end
$var wire 1 6 clk $end
$var wire 1 7 reset $end
$var wire 2 { ResultSrc [1:0] $end
$var wire 1 L RegW $end
$var wire 1 O NextPC $end
$var wire 1 P MemW $end
$var wire 1 C IRWrite $end
$var wire 1 s Branch $end
$var wire 1 D AdrSrc $end
$var wire 2 | ALUSrcB [1:0] $end
$var wire 2 } ALUSrcA [1:0] $end
$var wire 1 v ALUOp $end
$var reg 13 ~ controls [12:0] $end
$var reg 4 !" nextstate [3:0] $end
$var reg 4 "" state [3:0] $end
$upscope $end
$upscope $end
$upscope $end
$scope module dp $end
$var wire 2 #" ALUControl [1:0] $end
$var wire 2 $" ALUSrcA [1:0] $end
$var wire 2 %" ALUSrcB [1:0] $end
$var wire 1 D AdrSrc $end
$var wire 1 C IRWrite $end
$var wire 2 &" ImmSrc [1:0] $end
$var wire 1 @ PCWrite $end
$var wire 2 '" RegSrc [1:0] $end
$var wire 1 = RegWrite $end
$var wire 2 (" ResultSrc [1:0] $end
$var wire 1 6 clk $end
$var wire 1 7 reset $end
$var wire 32 )" WriteData [31:0] $end
$var wire 32 *" SrcB [31:0] $end
$var wire 32 +" SrcA [31:0] $end
$var wire 32 ," Result [31:0] $end
$var wire 32 -" ReadData [31:0] $end
$var wire 32 ." RD2 [31:0] $end
$var wire 32 /" RD1 [31:0] $end
$var wire 4 0" RA2 [3:0] $end
$var wire 4 1" RA1 [3:0] $end
$var wire 32 2" PC [31:0] $end
$var wire 32 3" Instr [31:0] $end
$var wire 32 4" ExtImm [31:0] $end
$var wire 32 5" Data [31:0] $end
$var wire 32 6" Adr [31:0] $end
$var wire 32 7" ALUResult [31:0] $end
$var wire 32 8" ALUOut [31:0] $end
$var wire 4 9" ALUFlags [3:0] $end
$var wire 32 :" A [31:0] $end
$scope module ALU $end
$var wire 2 ;" ALUControl [1:0] $end
$var wire 1 <" carry $end
$var wire 1 =" overflow $end
$var wire 1 >" zero $end
$var wire 33 ?" sum [32:0] $end
$var wire 1 @" neg $end
$var wire 32 A" b [31:0] $end
$var wire 32 B" a [31:0] $end
$var wire 4 C" ALUFlags [3:0] $end
$var reg 32 D" Result [31:0] $end
$upscope $end
$scope module ALUflopr $end
$var wire 1 6 clk $end
$var wire 32 E" d [31:0] $end
$var wire 1 7 reset $end
$var reg 32 F" q [31:0] $end
$upscope $end
$scope module data_from_memory $end
$var wire 1 6 clk $end
$var wire 1 7 reset $end
$var wire 32 G" d [31:0] $end
$var reg 32 H" q [31:0] $end
$upscope $end
$scope module datos $end
$var wire 1 6 clk $end
$var wire 1 C en $end
$var wire 1 7 reset $end
$var wire 32 I" d [31:0] $end
$var reg 32 J" q [31:0] $end
$upscope $end
$scope module ext $end
$var wire 2 K" ImmSrc [1:0] $end
$var wire 24 L" Instr [23:0] $end
$var reg 32 M" ExtImm [31:0] $end
$upscope $end
$scope module instruct $end
$var wire 2 N" s [1:0] $end
$var wire 32 O" y [31:0] $end
$var wire 32 P" d1 [31:0] $end
$var wire 32 Q" d0 [31:0] $end
$upscope $end
$scope module muxALUSrcA $end
$var wire 2 R" s [1:0] $end
$var wire 32 S" y [31:0] $end
$var wire 32 T" d1 [31:0] $end
$var wire 32 U" d0 [31:0] $end
$upscope $end
$scope module muxALUSrcB $end
$var wire 32 V" d1 [31:0] $end
$var wire 32 W" d2 [31:0] $end
$var wire 2 X" s [1:0] $end
$var wire 32 Y" y [31:0] $end
$var wire 32 Z" d0 [31:0] $end
$upscope $end
$scope module muxResult $end
$var wire 32 [" d0 [31:0] $end
$var wire 32 \" d1 [31:0] $end
$var wire 32 ]" d2 [31:0] $end
$var wire 2 ^" s [1:0] $end
$var wire 32 _" y [31:0] $end
$upscope $end
$scope module pcreg $end
$var wire 1 6 clk $end
$var wire 32 `" d [31:0] $end
$var wire 1 @ en $end
$var wire 1 7 reset $end
$var reg 32 a" q [31:0] $end
$upscope $end
$scope module r1 $end
$var wire 1 6 clk $end
$var wire 1 7 reset $end
$var wire 32 b" d [31:0] $end
$var reg 32 c" q [31:0] $end
$upscope $end
$scope module r2 $end
$var wire 1 6 clk $end
$var wire 1 7 reset $end
$var wire 32 d" d [31:0] $end
$var reg 32 e" q [31:0] $end
$upscope $end
$scope module ra1mux $end
$var wire 4 f" d0 [3:0] $end
$var wire 4 g" d1 [3:0] $end
$var wire 2 h" s [1:0] $end
$var wire 4 i" y [3:0] $end
$upscope $end
$scope module ra2mux $end
$var wire 4 j" d0 [3:0] $end
$var wire 4 k" d1 [3:0] $end
$var wire 2 l" s [1:0] $end
$var wire 4 m" y [3:0] $end
$upscope $end
$scope module rf $end
$var wire 1 6 clk $end
$var wire 32 n" r15 [31:0] $end
$var wire 4 o" ra1 [3:0] $end
$var wire 4 p" ra2 [3:0] $end
$var wire 4 q" wa3 [3:0] $end
$var wire 32 r" wd3 [31:0] $end
$var wire 1 = we3 $end
$var wire 32 s" rd2 [31:0] $end
$var wire 32 t" rd1 [31:0] $end
$upscope $end
$upscope $end
$upscope $end
$scope module mem $end
$var wire 32 u" a [31:0] $end
$var wire 1 6 clk $end
$var wire 32 v" rd [31:0] $end
$var wire 32 w" wd [31:0] $end
$var wire 1 4 we $end
$upscope $end
$upscope $end
$upscope $end
$enddefinitions $end
#0
$dumpvars
b0 w"
b11100000010011110000000000001111 v"
b0 u"
bx t"
bx s"
b100 r"
b0 q"
b0 p"
b0 o"
b100 n"
b0 m"
b0 l"
b0 k"
b0 j"
b0 i"
b0 h"
b1111 g"
b0 f"
b0 e"
bx d"
b0 c"
bx b"
b0 a"
b100 `"
b100 _"
b10 ^"
b100 ]"
b0 \"
b0 ["
b0 Z"
b100 Y"
b10 X"
b100 W"
b0 V"
b0 U"
b0 T"
b0 S"
b1 R"
b0 Q"
b100 P"
b0 O"
b0 N"
b0 M"
b0 L"
b0 K"
b0 J"
b11100000010011110000000000001111 I"
b0 H"
b11100000010011110000000000001111 G"
b0 F"
b100 E"
b100 D"
b0 C"
b0 B"
b100 A"
0@"
b100 ?"
0>"
0="
0<"
b0 ;"
b0 :"
b0 9"
b0 8"
b100 7"
b0 6"
b0 5"
b0 4"
b0 3"
b0 2"
b0 1"
b0 0"
bx /"
bx ."
b11100000010011110000000000001111 -"
b100 ,"
b0 +"
b100 *"
b0 )"
b10 ("
b0 '"
b0 &"
b10 %"
b1 $"
b0 #"
b0 ""
b1 !"
b1000101001100 ~
b1 }
b10 |
b10 {
b0 z
b0 y
b0 x
b0 w
0v
b1 u
b10 t
0s
b0 r
b10 q
b0 p
b0 o
b0 n
b0 m
b0 l
b0 k
b0 j
0i
b0 h
b0 g
0f
b0 e
0d
0c
0b
0a
1`
b0 _
b0 ^
b0 ]
0\
0[
b0 Z
b0 Y
b0 X
b0 W
b0 V
b0 U
b1 T
b10 S
b0 R
b0 Q
0P
1O
0N
b0 M
0L
b10 K
b0 J
b0 I
b0 H
b1 G
b10 F
b0 E
0D
1C
b0 B
b0 A
1@
b11100000010011110000000000001111 ?
b0 >
0=
b10 <
b0 ;
b0 :
b11100000010011110000000000001111 9
b0 8
17
16
b0 5
04
b0 3
bz 2
bz 1
bz 0
bz /
bz .
bz -
z,
bz +
bz *
bx )
z(
bz '
z&
bx %
z$
z#
bz "
z!
$end
#5
06
#10
16
#15
06
#20
0@
b1000 ,"
b1000 P"
b1000 _"
b1000 `"
b1000 n"
b1000 r"
b1000 ."
b1000 d"
b1000 s"
b1000 /"
b1000 b"
b1000 t"
1\
0O
0C
b1000 7"
b1000 D"
b1000 E"
b1000 ]"
b11100010100000000010000000000101 9
b11100010100000000010000000000101 ?
b11100010100000000010000000000101 -"
b11100010100000000010000000000101 G"
b11100010100000000010000000000101 I"
b11100010100000000010000000000101 v"
b1111 4"
b1111 M"
b1111 V"
b1111 0"
b1111 m"
b1111 p"
b1111 1"
b1111 i"
b1111 o"
b100 m
b100 y
b1110 W
b1110 ^
b1001100 ~
b110 !"
b1000 ?"
b100 +"
b100 B"
b100 S"
b100 5
b100 :
b100 E
b100 6"
b100 O"
b100 u"
b10011110000000000001111 L"
b1111 j"
b1111 f"
b11100000010011110000 J
b1 ""
b100 2"
b100 Q"
b100 T"
b100 a"
b11100000010011110000000000001111 A
b11100000010011110000000000001111 3"
b11100000010011110000000000001111 J"
b11100000010011110000000000001111 5"
b11100000010011110000000000001111 H"
b11100000010011110000000000001111 \"
bx :"
bx U"
bx c"
bx 3
bx 8
bx ;
bx )"
bx Z"
bx e"
bx w"
b100 8"
b100 F"
b100 ["
16
07
#25
06
#30
b1 h
b100 H
b100 U
b100 ]
b100 9"
b100 C"
1>"
b1000 *"
b1000 A"
b1000 Y"
b0 7"
b0 D"
b0 E"
b0 ]"
b0 ?"
b1000 +"
b1000 B"
b1000 S"
b1 I
b1 V
b1 w
b1 #"
b1 ;"
b0 <
b0 K
b0 q
b0 {
b0 ("
b0 ^"
b0 G
b0 T
b0 u
b0 }
b0 $"
b0 R"
b0 F
b0 S
b0 t
b0 |
b0 %"
b0 X"
1v
b1 ~
b1000 !"
b1000 8"
b1000 F"
b1000 ["
b1000 3
b1000 8
b1000 ;
b1000 )"
b1000 Z"
b1000 e"
b1000 w"
b1000 :"
b1000 U"
b1000 c"
b11100010100000000010000000000101 5"
b11100010100000000010000000000101 H"
b11100010100000000010000000000101 \"
1[
b110 ""
16
#35
06
#40
0="
b0 e
0<"
0@"
b0 h
b0 H
b0 U
b0 ]
b0 9"
b0 C"
0>"
b10000 7"
b10000 D"
b10000 E"
b10000 ]"
b10000 ?"
1=
b0 I
b0 V
b0 w
b0 #"
b0 ;"
b0 /"
b0 b"
b0 t"
b0 ."
b0 d"
b0 s"
1L
0v
b0 ,"
b0 P"
b0 _"
b0 `"
b0 n"
b0 r"
b1000000000 ~
b0 !"
b1000 ""
b0 8"
b0 F"
b0 ["
16
#45
06
#50
b1000 /"
b1000 b"
b1000 t"
b1000 ."
b1000 d"
b1000 s"
1@
0=
b1000 ,"
b1000 P"
b1000 _"
b1000 `"
b1000 n"
b1000 r"
b100 *"
b100 A"
b100 Y"
b1000 7"
b1000 D"
b1000 E"
b1000 ]"
1O
0L
1C
b10 <
b10 K
b10 q
b10 {
b10 ("
b10 ^"
b1 G
b1 T
b1 u
b1 }
b1 $"
b1 R"
b10 F
b10 S
b10 t
b10 |
b10 %"
b10 X"
b1000 ?"
b100 +"
b100 B"
b100 S"
b1000101001100 ~
b1 !"
b10000 8"
b10000 F"
b10000 ["
b0 3
b0 8
b0 ;
b0 )"
b0 Z"
b0 e"
b0 w"
b0 :"
b0 U"
b0 c"
b0 ""
16
#55
06
#60
0@
b1100 ,"
b1100 P"
b1100 _"
b1100 `"
b1100 n"
b1100 r"
bx ."
bx d"
bx s"
b0 /"
b0 b"
b0 t"
0O
0C
b1100 7"
b1100 D"
b1100 E"
b1100 ]"
b11100010100000000011000000001100 9
b11100010100000000011000000001100 ?
b11100010100000000011000000001100 -"
b11100010100000000011000000001100 G"
b11100010100000000011000000001100 I"
b11100010100000000011000000001100 v"
b101 4"
b101 M"
b101 V"
b101 0"
b101 m"
b101 p"
b0 1"
b0 i"
b0 o"
b101000 m
b101000 y
b10 p
b1001100 ~
b111 !"
b1100 ?"
b1000 +"
b1000 B"
b1000 S"
b1000 5
b1000 :
b1000 E
b1000 6"
b1000 O"
b1000 u"
b100000000010000000000101 L"
b10 q"
b10 k"
b101 j"
b0 f"
b11100010100000000010 J
b1 ""
b1000 2"
b1000 Q"
b1000 T"
b1000 a"
b11100010100000000010000000000101 A
b11100010100000000010000000000101 3"
b11100010100000000010000000000101 J"
b1000 :"
b1000 U"
b1000 c"
b1000 3
b1000 8
b1000 ;
b1000 )"
b1000 Z"
b1000 e"
b1000 w"
b1000 8"
b1000 F"
b1000 ["
16
#65
06
#70
b101 7"
b101 D"
b101 E"
b101 ]"
b101 *"
b101 A"
b101 Y"
b101 ?"
b0 +"
b0 B"
b0 S"
b0 <
b0 K
b0 q
b0 {
b0 ("
b0 ^"
b0 G
b0 T
b0 u
b0 }
b0 $"
b0 R"
b1 F
b1 S
b1 t
b1 |
b1 %"
b1 X"
1v
b11 ~
b1000 !"
b1100 8"
b1100 F"
b1100 ["
bx 3
bx 8
bx ;
bx )"
bx Z"
bx e"
bx w"
b0 :"
b0 U"
b0 c"
b11100010100000000011000000001100 5"
b11100010100000000011000000001100 H"
b11100010100000000011000000001100 \"
b111 ""
16
#75
06
#80
x="
bx e
x<"
x@"
bx h
bx H
bx U
bx ]
bx 9"
bx C"
x>"
bx 7"
bx D"
bx E"
bx ]"
bx ?"
bx *"
bx A"
bx Y"
1=
1L
b0 F
b0 S
b0 t
b0 |
b0 %"
b0 X"
0v
b101 ,"
b101 P"
b101 _"
b101 `"
b101 n"
b101 r"
b1000000000 ~
b0 !"
b1000 ""
b101 8"
b101 F"
b101 ["
16
#85
06
#90
0="
b0 e
0<"
0@"
b0 h
b0 H
b0 U
b0 ]
b0 9"
b0 C"
0>"
b1100 7"
b1100 D"
b1100 E"
b1100 ]"
b1100 ?"
b100 *"
b100 A"
b100 Y"
1@
0=
b1000 +"
b1000 B"
b1000 S"
b1100 ,"
b1100 P"
b1100 _"
b1100 `"
b1100 n"
b1100 r"
1O
0L
1C
b10 <
b10 K
b10 q
b10 {
b10 ("
b10 ^"
b1 G
b1 T
b1 u
b1 }
b1 $"
b1 R"
b10 F
b10 S
b10 t
b10 |
b10 %"
b10 X"
b1000101001100 ~
b1 !"
bx 8"
bx F"
bx ["
b0 ""
16
#95
06
#100
0@
b10000 ,"
b10000 P"
b10000 _"
b10000 `"
b10000 n"
b10000 r"
0O
0C
b10000 7"
b10000 D"
b10000 E"
b10000 ]"
b11100010010000110111000000001001 9
b11100010010000110111000000001001 ?
b11100010010000110111000000001001 -"
b11100010010000110111000000001001 G"
b11100010010000110111000000001001 I"
b11100010010000110111000000001001 v"
b1100 4"
b1100 M"
b1100 V"
b1100 0"
b1100 m"
b1100 p"
b11 p
b1001100 ~
b111 !"
b10000 ?"
b1100 +"
b1100 B"
b1100 S"
b1100 5
b1100 :
b1100 E
b1100 6"
b1100 O"
b1100 u"
b100000000011000000001100 L"
b11 q"
b11 k"
b1100 j"
b11100010100000000011 J
b1 ""
b1100 2"
b1100 Q"
b1100 T"
b1100 a"
b11100010100000000011000000001100 A
b11100010100000000011000000001100 3"
b11100010100000000011000000001100 J"
b1100 8"
b1100 F"
b1100 ["
16
#105
06
#110
b1100 7"
b1100 D"
b1100 E"
b1100 ]"
b1100 *"
b1100 A"
b1100 Y"
b1100 ?"
b0 +"
b0 B"
b0 S"
b0 <
b0 K
b0 q
b0 {
b0 ("
b0 ^"
b0 G
b0 T
b0 u
b0 }
b0 $"
b0 R"
b1 F
b1 S
b1 t
b1 |
b1 %"
b1 X"
1v
b11 ~
b1000 !"
b10000 8"
b10000 F"
b10000 ["
b11100010010000110111000000001001 5"
b11100010010000110111000000001001 H"
b11100010010000110111000000001001 \"
b111 ""
16
#115
06
#120
x="
bx e
x<"
x@"
bx h
bx H
bx U
bx ]
bx 9"
bx C"
x>"
bx 7"
bx D"
bx E"
bx ]"
bx ?"
bx *"
bx A"
bx Y"
1=
1L
b0 F
b0 S
b0 t
b0 |
b0 %"
b0 X"
0v
b1100 ,"
b1100 P"
b1100 _"
b1100 `"
b1100 n"
b1100 r"
b1000000000 ~
b0 !"
b1000 ""
b1100 8"
b1100 F"
b1100 ["
16
#125
06
#130
0="
b0 e
0<"
0@"
b0 h
b0 H
b0 U
b0 ]
b0 9"
b0 C"
0>"
b10000 7"
b10000 D"
b10000 E"
b10000 ]"
b10000 ?"
b100 *"
b100 A"
b100 Y"
1@
0=
b1100 +"
b1100 B"
b1100 S"
b10000 ,"
b10000 P"
b10000 _"
b10000 `"
b10000 n"
b10000 r"
1O
0L
1C
b10 <
b10 K
b10 q
b10 {
b10 ("
b10 ^"
b1 G
b1 T
b1 u
b1 }
b1 $"
b1 R"
b10 F
b10 S
b10 t
b10 |
b10 %"
b10 X"
b1000101001100 ~
b1 !"
bx 8"
bx F"
bx ["
b0 ""
16
#135
06
#140
0@
b10100 ,"
b10100 P"
b10100 _"
b10100 `"
b10100 n"
b10100 r"
b1100 /"
b1100 b"
b1100 t"
0O
0C
b10100 7"
b10100 D"
b10100 E"
b10100 ]"
b11100001100001110100000000000010 9
b11100001100001110100000000000010 ?
b11100001100001110100000000000010 -"
b11100001100001110100000000000010 G"
b11100001100001110100000000000010 I"
b11100001100001110100000000000010 v"
b1001 4"
b1001 M"
b1001 V"
b1001 0"
b1001 m"
b1001 p"
b11 1"
b11 i"
b11 o"
b100100 m
b100100 y
b111 p
b1001100 ~
b111 !"
b10100 ?"
b10000 +"
b10000 B"
b10000 S"
b10000 5
b10000 :
b10000 E
b10000 6"
b10000 O"
b10000 u"
b10000110111000000001001 L"
b111 q"
b111 k"
b1001 j"
b11 f"
b11100010010000110111 J
b1 ""
b10000 2"
b10000 Q"
b10000 T"
b10000 a"
b11100010010000110111000000001001 A
b11100010010000110111000000001001 3"
b11100010010000110111000000001001 J"
b10000 8"
b10000 F"
b10000 ["
16
#145
06
#150
b1001 *"
b1001 A"
b1001 Y"
b11 7"
b11 D"
b11 E"
b11 ]"
b11 ?"
b1100 +"
b1100 B"
b1100 S"
b1 I
b1 V
b1 w
b1 #"
b1 ;"
b0 <
b0 K
b0 q
b0 {
b0 ("
b0 ^"
b0 G
b0 T
b0 u
b0 }
b0 $"
b0 R"
b1 F
b1 S
b1 t
b1 |
b1 %"
b1 X"
1v
b11 ~
b1000 !"
b10100 8"
b10100 F"
b10100 ["
b1100 :"
b1100 U"
b1100 c"
b11100001100001110100000000000010 5"
b11100001100001110100000000000010 H"
b11100001100001110100000000000010 \"
b111 ""
16
#155
06
#160
x="
bx e
x<"
x@"
bx h
bx H
bx U
bx ]
bx 9"
bx C"
x>"
bx *"
bx A"
bx Y"
bx 7"
bx D"
bx E"
bx ]"
bx ?"
1=
b0 I
b0 V
b0 w
b0 #"
b0 ;"
1L
b0 F
b0 S
b0 t
b0 |
b0 %"
b0 X"
0v
b11 ,"
b11 P"
b11 _"
b11 `"
b11 n"
b11 r"
b1000000000 ~
b0 !"
b1000 ""
b11 8"
b11 F"
b11 ["
16
#165
06
#170
0="
b0 e
0<"
0@"
b0 h
b0 H
b0 U
b0 ]
b0 9"
b0 C"
0>"
b10100 7"
b10100 D"
b10100 E"
b10100 ]"
b10100 ?"
b100 *"
b100 A"
b100 Y"
1@
0=
b10000 +"
b10000 B"
b10000 S"
b10100 ,"
b10100 P"
b10100 _"
b10100 `"
b10100 n"
b10100 r"
1O
0L
1C
b10 <
b10 K
b10 q
b10 {
b10 ("
b10 ^"
b1 G
b1 T
b1 u
b1 }
b1 $"
b1 R"
b10 F
b10 S
b10 t
b10 |
b10 %"
b10 X"
b1000101001100 ~
b1 !"
bx 8"
bx F"
bx ["
b0 ""
16
#175
06
#180
0@
b11000 ,"
b11000 P"
b11000 _"
b11000 `"
b11000 n"
b11000 r"
b101 ."
b101 d"
b101 s"
b11 /"
b11 b"
b11 t"
0O
0C
b11000 7"
b11000 D"
b11000 E"
b11000 ]"
b11100000000000110101000000000100 9
b11100000000000110101000000000100 ?
b11100000000000110101000000000100 -"
b11100000000000110101000000000100 G"
b11100000000000110101000000000100 I"
b11100000000000110101000000000100 v"
b10 4"
b10 M"
b10 V"
b10 0"
b10 m"
b10 p"
b111 1"
b111 i"
b111 o"
b11000 m
b11000 y
b100 p
b1001100 ~
b110 !"
b11000 ?"
b10100 +"
b10100 B"
b10100 S"
b10100 5
b10100 :
b10100 E
b10100 6"
b10100 O"
b10100 u"
b100001110100000000000010 L"
b100 q"
b100 k"
b10 j"
b111 f"
b11100001100001110100 J
b1 ""
b10100 2"
b10100 Q"
b10100 T"
b10100 a"
b11100001100001110100000000000010 A
b11100001100001110100000000000010 3"
b11100001100001110100000000000010 J"
b10100 8"
b10100 F"
b10100 ["
16
#185
06
#190
b101 *"
b101 A"
b101 Y"
b111 7"
b111 D"
b111 E"
b111 ]"
b111111111111111111111111111111110 ?"
b11 +"
b11 B"
b11 S"
b11 I
b11 V
b11 w
b11 #"
b11 ;"
b0 <
b0 K
b0 q
b0 {
b0 ("
b0 ^"
b0 G
b0 T
b0 u
b0 }
b0 $"
b0 R"
b0 F
b0 S
b0 t
b0 |
b0 %"
b0 X"
1v
b1 ~
b1000 !"
b11000 8"
b11000 F"
b11000 ["
b101 3
b101 8
b101 ;
b101 )"
b101 Z"
b101 e"
b101 w"
b11 :"
b11 U"
b11 c"
b11100000000000110101000000000100 5"
b11100000000000110101000000000100 H"
b11100000000000110101000000000100 \"
b110 ""
16
#195
06
#200
b0 e
0="
b0 h
0<"
b0 H
b0 U
b0 ]
b0 9"
b0 C"
0@"
b1000 7"
b1000 D"
b1000 E"
b1000 ]"
b1000 ?"
1=
b0 I
b0 V
b0 w
b0 #"
b0 ;"
1L
0v
b111 ,"
b111 P"
b111 _"
b111 `"
b111 n"
b111 r"
b1000000000 ~
b0 !"
b1000 ""
b111 8"
b111 F"
b111 ["
16
#205
06
#210
b11000 7"
b11000 D"
b11000 E"
b11000 ]"
b100 *"
b100 A"
b100 Y"
1@
0=
b11000 ?"
b10100 +"
b10100 B"
b10100 S"
b11000 ,"
b11000 P"
b11000 _"
b11000 `"
b11000 n"
b11000 r"
1O
0L
1C
b10 <
b10 K
b10 q
b10 {
b10 ("
b10 ^"
b1 G
b1 T
b1 u
b1 }
b1 $"
b1 R"
b10 F
b10 S
b10 t
b10 |
b10 %"
b10 X"
b1000101001100 ~
b1 !"
b1000 8"
b1000 F"
b1000 ["
b0 ""
16
#215
06
#220
0@
b11100 ,"
b11100 P"
b11100 _"
b11100 `"
b11100 n"
b11100 r"
b111 ."
b111 d"
b111 s"
b1100 /"
b1100 b"
b1100 t"
0O
0C
b11100 7"
b11100 D"
b11100 E"
b11100 ]"
b11100000100001010101000000000100 9
b11100000100001010101000000000100 ?
b11100000100001010101000000000100 -"
b11100000100001010101000000000100 G"
b11100000100001010101000000000100 I"
b11100000100001010101000000000100 v"
b100 4"
b100 M"
b100 V"
b100 0"
b100 m"
b100 p"
b11 1"
b11 i"
b11 o"
b0 m
b0 y
b101 p
b1001100 ~
b110 !"
b11100 ?"
b11000 +"
b11000 B"
b11000 S"
b11000 5
b11000 :
b11000 E
b11000 6"
b11000 O"
b11000 u"
b110101000000000100 L"
b101 q"
b101 k"
b100 j"
b11 f"
b11100000000000110101 J
b1 ""
b11000 2"
b11000 Q"
b11000 T"
b11000 a"
b11100000000000110101000000000100 A
b11100000000000110101000000000100 3"
b11100000000000110101000000000100 J"
b11000 8"
b11000 F"
b11000 ["
16
#225
06
#230
b111 *"
b111 A"
b111 Y"
b100 7"
b100 D"
b100 E"
b100 ]"
b10011 ?"
b1100 +"
b1100 B"
b1100 S"
b10 I
b10 V
b10 w
b10 #"
b10 ;"
b0 <
b0 K
b0 q
b0 {
b0 ("
b0 ^"
b0 G
b0 T
b0 u
b0 }
b0 $"
b0 R"
b0 F
b0 S
b0 t
b0 |
b0 %"
b0 X"
1v
b1 ~
b1000 !"
b11100 8"
b11100 F"
b11100 ["
b111 3
b111 8
b111 ;
b111 )"
b111 Z"
b111 e"
b111 w"
b1100 :"
b1100 U"
b1100 c"
b11100000100001010101000000000100 5"
b11100000100001010101000000000100 H"
b11100000100001010101000000000100 \"
b110 ""
16
#235
06
#240
b10011 7"
b10011 D"
b10011 E"
b10011 ]"
1=
b0 I
b0 V
b0 w
b0 #"
b0 ;"
1L
0v
b100 ,"
b100 P"
b100 _"
b100 `"
b100 n"
b100 r"
b1000000000 ~
b0 !"
b1000 ""
b100 8"
b100 F"
b100 ["
16
#245
06
#250
b11100 7"
b11100 D"
b11100 E"
b11100 ]"
b100 *"
b100 A"
b100 Y"
1@
0=
b11100 ?"
b11000 +"
b11000 B"
b11000 S"
b11100 ,"
b11100 P"
b11100 _"
b11100 `"
b11100 n"
b11100 r"
1O
0L
1C
b10 <
b10 K
b10 q
b10 {
b10 ("
b10 ^"
b1 G
b1 T
b1 u
b1 }
b1 $"
b1 R"
b10 F
b10 S
b10 t
b10 |
b10 %"
b10 X"
b1000101001100 ~
b1 !"
b10011 8"
b10011 F"
b10011 ["
b0 ""
16
#255
06
